digraph {

    newrank=True

    Dialog [
        shape=star
        colorscheme=set312
        fillcolor=1
        fontcolor=White
        style=filled
    ]

    Dialog -> ModelLayer
    ModelLayer -> TileLayer
    TileLayer -> Loader
    TileLayer -> Tile
    TileLayer -> SelectionLayer
    SelectionLayer -> ScrolledWindow
    ScrolledWindow -> IconView
    IconView -> ButtonRelease
}
